Introduction aux outils d’analyse de données et à R
…
Information sur le nombre de lignes, colonnes, taille

Possibilité de trier les lignes dans la visualisation

“Ouverture” de la table (flèche bleue) pour voir le contenu (variable, type …)

L’explorateur d’Environnement sert à avoir une premier preview des données

Dans le script : exécuter le nom de données. Dans notre cas, monjeudedonnees et le lancer.

Un “tibble” : un format de jeu de données qui permet notamment un affichage “propre” à l’écran :

monjeudedonnees

# A tibble: 12,467 × 3
        prenom genre    nb
         <chr> <chr> <int>
1       Michel     M 14136
2        Alain     M 10646
3     Philippe     M  9903
4      Bernard     M  8992
5    Christian     M  8102
6       Daniel     M  7821
7       Gérard     M  7009
8  Jean-Pierre     M  6945
9      Patrick     M  6884
10      Pierre     M  6711
# ... with 12,457 more rows
…
Ces verbes sont articulés avec un “pipe”, un tuyau et si on les mets bout à bout, cela donne un pipeline :)

Le symbole %>% représente le pipe dans R (raccourci clavier pour l’écrire dans Rstudio : Ctrl + Shift + M ou Pomme + Shift + M)

L’intérêt c’est de se débarrasser des colonnes inutiles, ou plutôt de ne conserver que celles dont on a besoin

Avec select : on indique les colonnes qu’on veut garder et celles dont on veut se débarrasser

Colonnes pas utiles : libellé du département (on pourra les retrouver, redondant avec code du département), nom de la commune (redondant avec code de la commune), blancs et nuls (on pourra le recalculer)

P2012T1 %>% select(`Code du département`, `Code de la commune`, Inscrits, Votants, 
    Exprimés, contains("Voix"))

# A tibble: 36,791 × 35
   `Code du département` `Code de la commune` Inscrits Votants Exprimés
                   <chr>                <chr>    <int>   <int>    <int>
1                      1                    1      592     508      499
2                      1                    2      215     179      174
3                      1                    4     8205    6507     6381
4                      1                    5     1152     982      964
5                      1                    6      105      88       87
6                      1                    7     1702    1480     1451
7                      1                    8      549     481      474
8                      1                    9      269     229      225
9                      1                   10      681     582      570
10                     1                   11      255     225      218
# ... with 36,781 more rows, and 30 more variables: Voix <int>, `%
#   Voix/Ins` <dbl>, `% Voix/Exp` <dbl>, Voix_1 <int>, `%
#   Voix/Ins_1` <dbl>, `% Voix/Exp_1` <dbl>, Voix_2 <int>, `%
#   Voix/Ins_2` <dbl>, `% Voix/Exp_2` <dbl>, Voix_3 <int>, `%
#   Voix/Ins_3` <dbl>, `% Voix/Exp_3` <dbl>, Voix_4 <int>, `%
#   Voix/Ins_4` <dbl>, `% Voix/Exp_4` <dbl>, Voix_5 <int>, `%
#   Voix/Ins_5` <dbl>, `% Voix/Exp_5` <dbl>, Voix_6 <int>, `%
#   Voix/Ins_6` <dbl>, `% Voix/Exp_6` <dbl>, Voix_7 <int>, `%
#   Voix/Ins_7` <dbl>, `% Voix/Exp_7` <dbl>, Voix_8 <int>, `%
…
Voir l’aide, Plusieurs arguments :

string: la variable de départ

width : la largeur minimale qu’on veut obtenir

side : où rajouter le caractère manquant

pad : que rajouter quand il manque des caractères, en l’occurence “0”

library(stringr)
df %>% mutate(codedpt = str_pad(`Code du département`, 2, "left", 0))

# A tibble: 36,791 × 16
   `Code du département` `Code de la commune` Inscrits Votants Exprimés
                   <chr>                <chr>    <int>   <int>    <int>
1                      1                    1      592     508      499
2                      1                    2      215     179      174
3                      1                    4     8205    6507     6381
4                      1                    5     1152     982      964
5                      1                    6      105      88       87
6                      1                    7     1702    1480     1451
7                      1                    8      549     481      474
8                      1                    9      269     229      225
9                      1                   10      681     582      570
10                     1                   11      255     225      218
# ... with 36,781 more rows, and 11 more variables: JOLY <int>, `LE
#   PEN` <int>, SARKOZY <int>, MÉLENCHON <int>, POUTOU <int>,
#   ARTHAUD <int>, CHEMINADE <int>, BAYROU <int>, `DUPONT-AIGNAN` <int>,
#   HOLLANDE <int>, codedpt <chr>

On refait la même chose pour les codes des communes en 3 chiffres pour être conforme à la norme INSEE :

df %>% mutate(CodeCommune = str_pad("Code de la commune", 3, "left", "0"))

# A tibble: 36,791 × 16
   `Code du département` `Code de la commune` Inscrits Votants Exprimés
                   <chr>                <chr>    <int>   <int>    <int>
1                      1                    1      592     508      499
2                      1                    2      215     179      174
3                      1                    4     8205    6507     6381
4                      1                    5     1152     982      964
5                      1                    6      105      88       87
6                      1                    7     1702    1480     1451
7                      1                    8      549     481      474
8                      1                    9      269     229      225
9                      1                   10      681     582      570
10                     1                   11      255     225      218
# ... with 36,781 more rows, and 11 more variables: JOLY <int>, `LE
#   PEN` <int>, SARKOZY <int>, MÉLENCHON <int>, POUTOU <int>,
#   ARTHAUD <int>, CHEMINADE <int>, BAYROU <int>, `DUPONT-AIGNAN` <int>,
#   HOLLANDE <int>, CodeCommune <chr>
…
library(stringr)

reserve <- reserve %>% # création d'un code circo sur deux caractères
mutate(CodeCirco = str_pad(NUMERO_CIRCONSCRIPTION, 2, "left", "0")) %>% mutate(CodeCirco = paste(ID_DEPARTEMENT, 
    CodeCirco, sep = "-"))  # concaténation

reserve

# A tibble: 10,920 × 30
   ID_SUBVENTION
           <int>
1              1
2              2
3              3
4              4
5              5
6              6
7              7
8              8
9              9
10            10
# ... with 10,910 more rows, and 29 more variables:
#   NOM_BENEFICIAIRE <chr>, DESCRIPTION_SUBVENTION <chr>,
#   ADRESSE_BENEFICIAIRE <chr>, PROGRAMME_PJL_FINANCE <chr>,
#   MONTANT_SUBVENTION <int>, PRENOM_NOM_DEPUTE_NOSDEPUTES <chr>,
#   ID_DEPUTE_AN <chr>, ID_NOSDEPUTES <int>, NOM_DEPUTE_NOSDEPUTES <chr>,
#   PRENOM_DEPUTE_NOSDEPUTES <chr>, SEXE_DEPUTE <chr>,
#   DATE_NAISSANCE_DEPUTE <date>, LIEU_NAISSANCE_DEPUTE <chr>,
#   ID_DEPARTEMENT <chr>, DEPARTEMENT_NOSDEPUTES <chr>,
#   NUMERO_CIRCONSCRIPTION <int>, DATE_DEBUT_MANDAT <date>,
…
Le jeu de données initial pour faire un spread est de 3 colonnes. Un tableau en format long est un tableau de 3 colonnes MAXIMUM.

16 Agréger un jeu de données (group_by + summarise)

On veut regrouper des observations par un ou plusieurs critères : c’est le rôle de la fonction group_by

Exemple: agréger les résulats par département à partir du fichier par communes

Une option: Partir du format large (pour avoir une colonne par candidat) Pour chaque groupe, il faut générer une ligne unique Puis calcul du nombre d’inscrits par département

/!\ Quand on utilise summarise il faut toujours préciser les variables sur lesquelles on travaille sinon le résultat final présenté est tronqué

df_large %>% group_by(codedpt) %>% summarise(Inscrits = sum(Inscrits))

# A tibble: 107 × 2
   codedpt Inscrits
     <chr>    <int>
1       01   393808
2       02   376068
3       03   256275
4       04   123933
5       05   106865
6       06   745288
7       07   243351
8       08   196579
9       09   116370
10      10   203590
# ... with 97 more rows
…
# on le fusionne avec nos données
df_large <- left_join(df_large, ze, by = c(CodeInsee = "CODGEO"))

# à partir de là, on peut agréger les résultats par zone d'emploi
df_ze_lepen <- df_large %>% group_by(LIBZE2010) %>% summarise_at(vars(Inscrits, 
    Exprimés, Votants, ARTHAUD:SARKOZY), funs(sum(.))) %>% mutate(LePen_ins = `LE PEN`/Inscrits * 
    100) %>% arrange(desc(LePen_ins))

df_ze_lepen

# A tibble: 305 × 15
                          LIBZE2010 Inscrits Exprimés Votants ARTHAUD
                              <chr>    <int>    <int>   <int>   <int>
1                            Orange    66970    53870   54871     193
2                        Sarrebourg    55431    44065   45036     409
3  Vitry-le-François - Saint-Dizier    85190    66437   67682     523
4                     Sarreguemines    83490    64827   66275     629
5              Saint-Dié-des-Vosges    65445    51880   53023     413
6                      Lens - Hénin   264291   197496  201523    1775
7                           Péronne    42269    34090   34682     425
8                           Avignon   350697   283982  288949    1108
9                           Forbach   154340   116464  118527     939
10                         Commercy    32551    26602   27095     173
# ... with 295 more rows, and 10 more variables: BAYROU <int>,
#   CHEMINADE <int>, `DUPONT-AIGNAN` <int>, HOLLANDE <int>, JOLY <int>,
#   `LE PEN` <int>, MÉLENCHON <int>, POUTOU <int>, SARKOZY <int>,
#   LePen_ins <dbl>
…
